,campaign_code,campaign_start_date,campaign_end_date,BTL_flag,count_GT,inc_sales_GT,count_MTA_input_events,count_MTA_input_events_google_sem,count_MTA_input_events_google_yt_gmail_audio_video_display,count_MTA_input_events_WX,count_MTA_input_redemptions,count_MTA_output,inc_sales_MTA_output,count_MTA_output_google_sem_always_on,inc_sales_MTA_output_google_sem_always_on,count_MTA_output_google_sem,inc_sales_MTA_output_google_sem,count_MTA_output_google_yt_gmail_audio_video_display,inc_sales_MTA_output_google_yt_gmail_audio_video_display,campaign_code_event_store,campaign_code_googlex_campaign,campaign_code_googlex_imps
0,CAT-4117,2021-03-23,2021-04-06,1,192605,2161884.616425559,1397556,277.0,,,192605,260482,2160994.2287639882,435,1045.8402469751572,86.0,0.0,,,FOUND,FOUND,FOUND
1,CAT-4118,2021-03-30,2021-04-13,1,260980,5872268.767512082,713765,,1908.0,2666.0,260980,317668,5867538.020358459,441,288.16514031750626,,,365.0,0.0,FOUND,FOUND,FOUND
2,CAT-4451,2021-03-24,2021-04-07,1,313527,5976845.71472141,1809361,789.0,,,313527,414113,5975660.694830395,926,5450.008685231532,280.0,1560.4622663908162,,,FOUND,FOUND,FOUND
3,CVM-3510,2021-03-15,2021-04-05,1,48651,-581616.1787444379,770378,,,,48651,70234,-581607.9248050422,76,-818.7655635522378,,,,,FOUND,FOUND,FOUND
